<?xml version="1.0" encoding="UTF-8"?>
<svg width="700px" height="700px" viewBox="0 0 700 700" version="1.1" xmlns="http://www.w3.org/2000/svg" xmlns:xlink="http://www.w3.org/1999/xlink">
    <!-- Generator: Sketch 51.1 (57501) - http://www.bohemiancoding.com/sketch -->
    <title>safari-pinned-tab</title>
    <desc>Created with Sketch.</desc>
    <defs></defs>
    <g id="safari-pinned-tab" stroke="none" stroke-width="1" fill="none" fill-rule="evenodd">
        <g id="Group">
            <rect id="Rectangle" fill="#000000" x="0" y="0" width="700" height="700"></rect>
            <g id="logo" transform="translate(175.000000, 116.666667)">
                <g id="Shape" fill="#FFFFFF">
                    <g id="path-1-link">
                        <path d="M224.626047,466.42881 C221.096177,466.3658 217.646322,465.349479 214.630319,463.484087 L187.510357,447.614741 C178.469684,455.765964 164.863287,455.765964 155.822614,447.614741 L128.672991,463.484087 C125.653267,465.335817 122.203547,466.338225 118.677263,466.38861 C109.15611,466.38861 102.255004,458.649917 102.255004,447.976549 L102.255004,410.911222 C102.255004,402.871021 106.209792,396.469012 112.221071,393.825796 L41.1930704,348.911223 C31.5038387,342.79062 22.477034,333.212731 15.239771,321.504187 L11.0872432,314.217756 C10.9092777,313.876047 10.4248161,312.881072 10.4248161,312.881072 C10.0194503,312.067002 9.61408442,311.242881 9.22849255,310.40871 C8.8429007,309.574539 8.47708277,308.760469 8.11126484,307.926298 C7.7454469,307.092127 7.37962896,306.237856 7.04347194,305.393635 C6.70731492,304.549413 6.38104488,303.705193 6.05477483,302.840871 C5.66918295,301.825796 5.39234776,301.072027 5.13528651,300.318258 C4.87822526,299.564489 4.59150309,298.670016 4.33444184,297.835846 C3.92907603,296.549414 3.72144963,295.865997 3.52371021,295.222781 C3.32597079,294.579565 3.08868348,293.574539 2.88105708,292.740369 C2.51523915,291.273031 2.36693458,290.659967 2.22851699,290.046901 C2.04066454,289.182579 1.88247299,288.318258 1.72428146,287.453936 C1.43755929,285.916248 1.33868958,285.383584 1.25959381,284.860972 C1.0915153,283.725293 0.972871642,282.629816 0.854227992,281.534338 C0.735584338,280.559464 0.686149482,280.087102 0.646601597,279.614741 C0.508184,277.805695 0.429088232,276.056951 0.429088232,274.39866 L0.429088232,156.951424 C0.429088232,155.273032 0.49829703,153.504187 0.646601597,151.705193 C0.646601597,151.222781 0.745471309,150.700167 0.804793136,150.247906 C0.992645592,148.509213 1.10140227,147.504188 1.24970684,146.499162 C1.33868958,145.896148 1.44744626,145.313232 1.56608991,144.730318 C1.91213391,142.82077 2.0505515,142.046901 2.22851699,141.262982 C2.40648246,140.479062 2.54490006,139.926298 2.71297857,139.252931 C3.16777924,137.433835 3.34574473,136.730319 3.54348415,136.036851 C3.74122357,135.343383 3.96862392,134.609715 4.19602425,133.896147 C4.7595816,132.137354 4.94743405,131.514238 5.16494742,130.901172 C5.44178262,130.097152 5.74827872,129.293132 6.05477483,128.489112 C6.60844522,127.021776 6.82595859,126.428811 7.07313286,125.835846 C7.44883776,124.901173 7.85420358,123.996649 8.24968243,123.082077 C8.72425705,122.026801 8.9813183,121.423785 9.25815349,120.830821 C9.70306722,119.886097 10.1677549,118.951424 10.6423294,118.01675 C10.6423294,118.01675 11.1267911,117.011726 11.3047566,116.659966 L14.2708479,111.021775 C21.8640418,98.7504187 31.1973426,88.7102178 41.2029573,82.3785595 L76.4796705,60.0871021 L67.9571014,51.4237856 C53.5366054,51.4237856 42.2312024,39.9316775 42.2312024,25.7554438 C42.2312024,11.5792103 53.5366054,0.0871021776 67.4825267,0.0871021776 C81.4284481,0.0871021776 92.7338512,11.5792103 92.7338512,25.7554438 C92.7338512,26.4087103 92.7338512,27.0519263 92.6646424,27.6951423 L106.130697,41.3735343 L130.294455,26.1072027 C141.456845,19.0720268 156.148884,15.1725293 171.661542,15.1725293 C187.530131,15.1725293 202.212283,19.0519263 213.384561,26.1072027 L237.805379,41.5343383 L251.380191,27.7051927 C251.380191,27.0619766 251.310982,26.4187605 251.310982,25.7654942 C251.306985,15.3808769 257.458878,6.01691414 266.896762,2.04195578 C276.334646,-1.93300259 287.198864,0.264276911 294.421184,7.60874901 C301.643505,14.9532211 303.800831,25.9977168 299.886753,35.5899067 C295.972676,45.1820965 286.758435,51.4319169 276.542532,51.4237856 L267.426745,60.2378559 L308.18084,86.7403685 C316.401721,93.5503987 323.385327,101.771832 328.814949,111.031825 L331.998553,116.639866 C332.186406,116.991624 332.680755,118.0268 332.680755,118.0268 C333.145442,118.951424 333.61013,119.886097 334.055044,120.820771 C334.351653,121.453937 334.628488,122.077052 334.905323,122.710217 C335.449106,123.946399 335.864359,124.891123 336.249952,125.845896 C336.487239,126.428811 336.714639,127.031826 336.942039,127.644891 C337.535258,129.21273 337.861528,130.056952 338.158137,130.911222 C338.37565,131.554438 338.583276,132.187604 338.781016,132.830821 C339.305025,134.499163 339.562086,135.293132 339.7796,136.077052 C339.997113,136.860971 340.155305,137.474037 340.33327,138.197655 C340.75841,139.896147 340.936375,140.579565 341.08468,141.273032 C341.232984,141.966499 341.401063,142.830821 341.53948,143.61474 C341.855864,145.333334 341.974507,145.926298 342.06349,146.509212 C342.211794,147.514238 342.320551,148.519263 342.419421,149.453937 C342.577613,150.770519 342.636935,151.293133 342.676482,151.735343 C342.824787,153.544389 342.893996,155.313233 342.893996,156.981574 L342.893996,274.368509 C342.893996,276.026801 342.824787,277.775545 342.676482,279.584589 C342.676482,280.046901 342.587499,280.519263 342.528178,281.001675 C342.38976,282.700168 342.281003,283.755444 342.112925,284.82077 C342.03383,285.363484 341.925073,285.916248 341.826203,286.469012 C341.499933,288.247906 341.341741,289.132328 341.144002,290.026801 C341.005584,290.639866 340.85728,291.252931 340.699088,291.865997 C340.254174,293.664991 340.056435,294.448911 339.829035,295.242881 C339.601634,296.036851 339.423669,296.619766 339.206156,297.303182 C338.761242,298.700168 338.504181,299.544388 338.207572,300.38861 C337.910962,301.232831 337.693449,301.835846 337.416614,302.559464 C336.9717,303.735343 336.64543,304.599665 336.309273,305.463987 C335.973116,306.328309 335.617185,307.122278 335.251368,307.966499 C334.885549,308.81072 334.519731,309.624791 334.134139,310.448911 C333.748548,311.273032 333.343181,312.097152 332.937816,312.921273 C332.611546,313.59464 332.453354,313.936348 332.275388,314.257956 L328.449131,321.644891 C320.875711,333.262981 311.839019,342.830821 302.149788,348.951423 L231.121786,393.835846 C237.152839,396.479062 241.087854,402.881072 241.087854,410.921273 L241.087854,448.026801 C241.048306,458.690117 234.137313,466.42881 224.626047,466.42881 Z" id="path-1"></path>
                    </g>
                </g>
                <ellipse id="Oval" fill="#000000" fill-rule="nonzero" cx="171.651655" cy="429.474037" rx="13.3968459" ry="13.6180905"></ellipse>
                <ellipse id="Oval" fill="#000000" fill-rule="nonzero" cx="117.93574" cy="243.845896" rx="13.3968459" ry="13.6180905"></ellipse>
                <ellipse id="Oval" fill="#000000" fill-rule="nonzero" cx="226.306832" cy="243.845896" rx="13.3968459" ry="13.6180905"></ellipse>
                <path d="M65.9599331,215.453936 C65.9599331,168.529313 46.3441824,129.564489 20.5293007,121.664991 C14.597118,133.112228 10.8796167,145.705192 10.8796167,156.961474 L10.8796167,274.368509 C10.8796167,285.504188 14.4685873,297.946398 20.3315612,309.293132 C46.2453127,301.534338 65.9599331,262.479062 65.9599331,215.453936 Z" id="Shape" fill="#000000" fill-rule="nonzero"></path>
                <path d="M277.343377,215.453936 C277.343377,168.529313 296.959128,129.564489 322.774009,121.664991 C328.706193,133.112228 332.423694,145.705192 332.423694,156.961474 L332.423694,274.368509 C332.423694,285.504188 328.834723,297.946398 322.971749,309.293132 C297.057997,301.534338 277.343377,262.479062 277.343377,215.453936 Z" id="Shape" fill="#000000" fill-rule="nonzero"></path>
                <path d="M250.713384,62.1913316 L288.891359,86.3283082 L207.076673,138.268007 C187.391713,150.760469 155.179961,150.760469 135.495002,138.237856 L54.2933072,86.5996649 L93.2360424,62.085024 L122.078382,91.4036851 C123.30356,92.6543632 124.969155,93.3562047 126.705484,93.3534336 L126.695597,93.3534336 C129.342578,93.3583457 131.731069,91.7397227 132.74468,89.2541147 C133.758289,86.7685068 133.196818,83.9068525 131.3227,82.0067002 L104.653872,54.8974451 L136.147542,35.0720268 C155.852276,22.6197655 188.103575,22.6197655 207.818196,35.0720268 L239.312147,54.9832128 L212.741907,82.0067002 C210.867789,83.9068525 210.306317,86.7685068 211.319927,89.2541147 C212.333538,91.7397227 214.722028,93.3583457 217.36901,93.3534336 C219.105338,93.3562047 220.770934,92.6543632 221.996112,91.4036851 L250.713384,62.1913316 Z" id="Combined-Shape" fill="#000000" fill-rule="nonzero"></path>
                <path d="M224.922655,294.489112 C224.922655,322.780569 200.976411,345.745393 171.434142,345.745393 C141.891872,345.745393 117.90608,322.780569 117.90608,294.489112" id="Shape" fill="#000000" fill-rule="nonzero"></path>
                <path d="M155.061317,423.17253 C160.9935,426.639866 160.9935,432.298157 155.061317,435.765494 L123.42301,454.318258 C117.490827,457.785595 112.695646,454.951424 112.695646,448.026801 L112.695646,410.911222 C112.695646,403.986599 117.520488,401.152429 123.42301,404.619765 L155.061317,423.17253 Z" id="Shape" fill="#000000" fill-rule="nonzero"></path>
                <path d="M188.241993,423.17253 C182.30981,426.639866 182.30981,432.298157 188.241993,435.765494 L219.8803,454.318258 C225.812483,457.785595 230.607664,454.951424 230.607664,448.026801 L230.607664,410.911222 C230.607664,403.986599 225.782823,401.152429 219.8803,404.619765 L188.241993,423.17253 Z" id="Shape" fill="#000000" fill-rule="nonzero"></path>
                <ellipse id="Oval" fill="#000000" fill-rule="nonzero" cx="67.5319616" cy="25.7654942" rx="14.7909089" ry="15.0351759"></ellipse>
                <ellipse id="Oval" fill="#000000" fill-rule="nonzero" cx="276.542532" cy="25.7654942" rx="14.7909089" ry="15.0351759"></ellipse>
            </g>
        </g>
    </g>
</svg>