<?xml version="1.0" encoding="UTF-8"?>
<svg width="22px" height="6px" viewBox="0 0 22 6" version="1.1" xmlns="http://www.w3.org/2000/svg" xmlns:xlink="http://www.w3.org/1999/xlink">
    <!-- Generator: Sketch 46.2 (44496) - http://www.bohemiancoding.com/sketch -->
    <title>Group</title>
    <desc>Created with Sketch.</desc>
    <defs></defs>
    <g id="Secciones" stroke="none" stroke-width="1" fill="none" fill-rule="evenodd">
        <g id="encuestas" transform="translate(-667.000000, -188.000000)" fill="#8E8E8E">
            <g id="Group" transform="translate(678.000000, 191.000000) rotate(-180.000000) translate(-678.000000, -191.000000) translate(667.000000, 188.000000)">
                <circle id="Oval" cx="3" cy="3" r="3"></circle>
                <circle id="Oval-Copy" cx="11" cy="3" r="3"></circle>
                <circle id="Oval-Copy-2" cx="19" cy="3" r="3"></circle>
            </g>
        </g>
    </g>
</svg>