<?xml version="1.0" encoding="UTF-8"?>
<svg width="36px" height="36px" viewBox="0 0 36 36" version="1.1" xmlns="http://www.w3.org/2000/svg" xmlns:xlink="http://www.w3.org/1999/xlink">
    <!-- Generator: Sketch 50 (54983) - http://www.bohemiancoding.com/sketch -->
    <title>icn-facebook</title>
    <desc>Created with Sketch.</desc>
    <defs></defs>
    <g id="UI" stroke="none" stroke-width="1" fill="none" fill-rule="evenodd">
        <g id="home" transform="translate(-679.000000, -707.000000)" fill-rule="nonzero">
            <g id="Group" transform="translate(679.000000, 707.000000)">
                <g id="icn-facebook">
                    <rect id="Rectangle-2" fill="#6754BA" x="0" y="0" width="36" height="36" rx="11"></rect>
                    <g id="Page-1" transform="translate(13.000000, 9.000000)" fill="#FFFFFF">
                        <path d="M10,0.137019231 L10,3.15144231 L8.18287037,3.15144231 C7.51928958,3.15144231 7.07175926,3.28846154 6.84027778,3.5625 C6.6087963,3.83653846 6.49305556,4.24759615 6.49305556,4.79567308 L6.49305556,6.95372596 L9.88425926,6.95372596 L9.43287037,10.3335337 L6.49305556,10.3335337 L6.49305556,19 L2.95138889,19 L2.95138889,10.3335337 L0,10.3335337 L0,6.95372596 L2.95138889,6.95372596 L2.95138889,4.46454327 C2.95138889,3.04867788 3.35262369,1.9506211 4.15509259,1.1703726 C4.95756148,0.390124169 6.0262348,0 7.36111111,0 C8.49537037,0 9.375,0.0456730769 10,0.137019231 Z" id="Fill-2"></path>
                    </g>
                </g>
            </g>
        </g>
    </g>
</svg>