<?xml version="1.0" encoding="UTF-8"?>
<svg width="264px" height="100px" viewBox="0 0 264 100" version="1.1" xmlns="http://www.w3.org/2000/svg" xmlns:xlink="http://www.w3.org/1999/xlink">
    <!-- Generator: Sketch 50 (54983) - http://www.bohemiancoding.com/sketch -->
    <title>scory-brand copy</title>
    <desc>Created with Sketch.</desc>
    <defs></defs>
    <g id="UI" stroke="none" stroke-width="1" fill="none" fill-rule="evenodd">
        <g id="home" transform="translate(-588.000000, -58.000000)">
            <g id="scory-brand-copy" transform="translate(588.000000, 58.000000)">
                <path d="M105.507565,68.0904522 C115.078993,68.0904522 121.798009,63.1229062 121.798009,54.2704844 L121.798009,54.1431114 C121.798009,46.3733598 116.727053,43.125349 107.726107,40.768949 C100.056288,38.7946678 98.1546792,37.8393704 98.1546792,34.909792 L98.1546792,34.782419 C98.1546792,32.6170784 100.119674,30.8975432 103.859504,30.8975432 C106.902077,30.8975432 109.94465,31.9802136 113.177384,33.8908082 C113.938028,34.3366136 114.698671,34.5913596 115.649475,34.5913596 C118.184953,34.5913596 120.213335,32.6170784 120.213335,30.069619 C120.213335,28.1590242 119.135757,26.821608 118.058179,26.1847432 C114.064802,23.6372836 109.374168,22.236181 103.986278,22.236181 C94.9219452,22.236181 88.4564772,27.5858458 88.4564772,35.6740298 L88.4564772,35.8014028 C88.4564772,44.6538246 94.2246888,47.1375978 103.162248,49.4303112 C110.57852,51.340906 112.099806,52.6146356 112.099806,55.0984088 L112.099806,55.2257816 C112.099806,57.8369276 109.691103,59.4290898 105.697725,59.4290898 C101.387413,59.4290898 97.7109706,57.9006142 94.3514628,55.4168412 C93.7175934,54.9710358 92.8301762,54.5252304 91.5624374,54.5252304 C89.0269596,54.5252304 86.9985776,56.4995114 86.9985776,59.046971 C86.9985776,60.5754466 87.7592208,61.9765494 88.8367988,62.7407872 C93.7809802,66.3072306 99.6759658,68.0904522 105.507565,68.0904522 Z M145.392623,68.2160804 C150.97897,68.2160804 154.597399,66.4320708 157.454053,63.8197708 C158.279309,63.0551954 158.85064,62.0357612 158.85064,60.7614686 C158.85064,58.467742 157.073166,56.6200176 154.787843,56.6200176 C153.645181,56.6200176 152.692963,57.1297346 152.185113,57.5120224 C150.344158,58.977459 148.37624,59.8694638 145.836992,59.8694638 C140.568051,59.8694638 137.203547,55.6642982 137.203547,50.4396984 L137.203547,50.3122692 C137.203547,45.2788134 140.631533,41.0099332 145.456105,41.0099332 C147.995353,41.0099332 149.772827,41.8382234 151.48682,43.1762306 C152.058151,43.622233 153.010369,44.13195 154.279993,44.13195 C156.692279,44.13195 158.660196,42.2205112 158.660196,39.7993552 C158.660196,38.1427748 157.77146,36.9959114 157.136647,36.4861944 C154.279993,34.0650384 150.661564,32.6633166 145.519586,32.6633166 C135.108667,32.6633166 127.681366,40.69136 127.681366,50.4396984 L127.681366,50.5671278 C127.681366,60.3154662 135.172148,68.2160804 145.392623,68.2160804 Z M181.194016,68.2160804 C170.660951,68.2160804 162.85633,60.3791808 162.85633,50.5671278 L162.85633,50.4396984 C162.85633,40.6276454 170.724403,32.6633166 181.32092,32.6633166 C191.853985,32.6633166 199.658606,40.5002162 199.658606,50.3122692 L199.658606,50.4396984 C199.658606,60.2517516 191.790533,68.2160804 181.194016,68.2160804 Z M181.320951,59.798995 C186.843975,59.798995 190.145092,55.53358 190.145092,50.5042102 L190.145092,50.3768844 C190.145092,45.3475146 186.52656,40.9547738 181.193985,40.9547738 C175.670961,40.9547738 172.369844,45.2201888 172.369844,50.2495586 L172.369844,50.3768844 C172.369844,55.4062542 175.988376,59.798995 181.320951,59.798995 Z M206.668564,62.8874298 C206.668564,65.5545062 208.828926,67.7135678 211.497612,67.7135678 C214.166296,67.7135678 216.32666,65.5545062 216.32666,62.8874298 L216.32666,53.870172 C216.32666,47.011976 219.058884,43.2653688 223.951472,42.1223362 C225.921214,41.6778234 227.573258,40.1537798 227.573258,37.6137072 C227.573258,34.8831292 225.857674,32.9145728 222.87129,32.9145728 C220.011986,32.9145728 217.724542,35.96266 216.32666,39.2647544 L216.32666,37.7407108 C216.32666,35.0736346 214.166296,32.9145728 211.497612,32.9145728 C208.828926,32.9145728 206.668564,35.0736346 206.668564,37.7407108 L206.668564,62.8874298 Z M240.213814,77.763819 C245.985928,77.763819 248.84027,75.155565 251.694612,68.2214262 L263.555992,39.6578638 C263.74628,39.2125522 264,38.131081 264,37.3676896 C264,34.8230514 261.906816,32.9145728 259.433052,32.9145728 C256.959288,32.9145728 255.563832,34.5685876 254.802674,36.604298 L247.698534,56.3888592 L240.340674,36.5406822 C239.516086,34.2505078 238.12063,32.9145728 235.710296,32.9145728 C233.046242,32.9145728 230.953058,34.8230514 230.953058,37.5585374 C230.953058,38.1946968 231.206778,39.1489362 231.460496,39.7850956 L243.068156,66.7582594 L242.751006,67.5216508 C241.86299,69.2392816 241.038402,69.5573612 239.325796,69.5573612 C238.628068,69.5573612 238.12063,69.4301294 237.296042,69.1756656 C236.915462,69.0484336 236.471454,68.9212018 235.710296,68.9212018 C233.74397,68.9212018 231.904506,70.5116006 231.904506,72.8653908 C231.904506,75.219181 233.553682,76.3642682 234.949138,76.8731958 C236.534884,77.4457394 238.0572,77.763819 240.213814,77.763819 Z" id="Scory" fill="#EFEDF7" fill-rule="nonzero"></path>
                <g id="logo">
                    <g id="Shape" fill="#FFFFFF">
                        <g id="path-1-link">
                            <path d="M48.7759416,99.9490308 C48.0094556,99.9355286 47.2603442,99.7177454 46.6054406,99.3180186 L40.7165346,95.9174444 C38.753417,97.6641352 35.7988852,97.6641352 33.8357676,95.9174444 L27.940421,99.3180186 C27.2847094,99.714818 26.5356274,99.9296196 25.76992,99.9404164 C23.7024696,99.9404164 22.2039438,98.282125 22.2039438,95.9949748 L22.2039438,88.0524048 C22.2039438,86.3295046 23.0626978,84.9576454 24.368004,84.391242 L8.944781,74.7666906 C6.84083354,73.4551328 4.88072738,71.402728 3.30920742,68.8937544 L2.40751566,67.3323762 C2.36887172,67.259153 2.26367436,67.045944 2.26367436,67.045944 C2.17565206,66.8715004 2.08762976,66.694903 2.00390124,66.5161522 C1.92017272,66.3374012 1.84073797,66.1629576 1.76130322,65.9842068 C1.68186847,65.8054558 1.60243372,65.6223978 1.52943962,65.4414932 C1.45644553,65.2605886 1.38559832,65.0796842 1.31475111,64.8944724 C1.23102258,64.6769562 1.1709098,64.5154344 1.11509079,64.3539124 C1.05927177,64.1923906 0.9970121,64.0007178 0.941193086,63.821967 C0.853170794,63.546303 0.808086206,63.3998564 0.765148502,63.2620244 C0.7222108,63.1241924 0.670685556,62.9088298 0.625600966,62.730079 C0.546166216,62.4156496 0.513962938,62.2842786 0.483906546,62.1529074 C0.443115728,61.9676956 0.408765564,61.7824838 0.374415402,61.597272 C0.312155732,61.2677674 0.29068688,61.1536252 0.273511798,61.0416368 C0.23701475,60.798277 0.211252128,60.563532 0.185489507,60.3287868 C0.159726885,60.1198852 0.148992459,60.0186648 0.140404918,59.9174444 C0.110348526,59.5297918 0.0931734446,59.155061 0.0931734446,58.7997128 L0.0931734446,33.632448 C0.0931734446,33.2727926 0.108201641,32.8937544 0.140404918,32.5082556 C0.140404918,32.4048816 0.16187377,32.292893 0.174755081,32.1959798 C0.2155459,31.8234028 0.239161636,31.6080402 0.271364914,31.3926776 C0.29068688,31.2634602 0.314302616,31.1385498 0.340065238,31.0136396 C0.41520622,30.6044508 0.445262612,30.4386216 0.483906546,30.270639 C0.522550478,30.1026562 0.55260687,29.9842068 0.589103918,29.8399138 C0.687860636,29.4501076 0.72650457,29.299354 0.769442272,29.1507538 C0.812379976,29.0021536 0.861758336,28.844939 0.911136694,28.6920316 C1.03350915,28.3151472 1.07429997,28.1816224 1.12153144,28.0502512 C1.18164423,27.8779612 1.24819767,27.7056712 1.31475111,27.5333812 C1.43497668,27.218952 1.48220815,27.091888 1.53588028,26.9648242 C1.61746191,26.764537 1.70548421,26.5707106 1.79135961,26.3747308 C1.8944101,26.1486002 1.95022912,26.0193826 2.0103419,25.8923188 C2.10695174,25.689878 2.20785534,25.4895908 2.31090582,25.2893036 C2.31090582,25.2893036 2.4161032,25.0739412 2.45474714,24.9985642 L3.09881268,23.7903804 C4.7476205,21.160804 6.7742801,19.0093324 8.94692788,17.6525485 L16.6070142,12.8758076 L14.7563992,11.0193826 C11.6250915,11.0193826 9.17020394,8.55678804 9.17020394,5.51902368 C9.17020394,2.48125934 11.6250915,0.0186647523 14.6533487,0.0186647523 C17.6816059,0.0186647523 20.1364934,2.48125934 20.1364934,5.51902368 C20.1364934,5.65900934 20.1364934,5.79684134 20.1214652,5.93467336 L23.0455228,8.86575736 L28.2925102,5.59440058 C30.7163434,4.08686288 33.9066148,3.25125628 37.2750776,3.25125628 C40.7208284,3.25125628 43.9089528,4.08255564 46.3349332,5.59440058 L51.6377394,8.90021536 L54.5854128,5.936827 C54.5854128,5.79899498 54.5703846,5.66116296 54.5703846,5.52117732 C54.5695168,3.2959022 55.9053564,1.28933874 57.9547254,0.437561952 C60.0040946,-0.41421484 62.3631818,0.0566307666 63.9314572,1.63044622 C65.4997326,3.20426166 65.9681804,5.57093932 65.1182664,7.62640858 C64.2683526,9.68187782 62.2675458,11.021125 60.0492356,11.0193826 L58.0698074,12.908112 L66.9192682,18.5872218 C68.7043738,20.046514 70.2208138,21.8082498 71.3998174,23.792534 L72.0911144,24.994257 C72.1319052,25.0696338 72.2392496,25.2914572 72.2392496,25.2914572 C72.3401532,25.4895908 72.4410568,25.689878 72.5376666,25.8901652 C72.6020732,26.0258436 72.662186,26.1593682 72.7222988,26.2950466 C72.8403774,26.5599426 72.9305466,26.7623834 73.0142752,26.9669778 C73.0658004,27.091888 73.1151788,27.2211056 73.164557,27.3524766 C73.2933702,27.6884422 73.3642174,27.8693468 73.428624,28.0524048 C73.4758554,28.1902368 73.52094,28.3259152 73.5638778,28.4637474 C73.6776626,28.8212492 73.7334816,28.9913854 73.7807132,29.1593682 C73.8279446,29.327351 73.8622948,29.4587222 73.9009386,29.6137832 C73.9932548,29.9777458 74.0318986,30.1241924 74.064102,30.2727926 C74.0963052,30.4213926 74.1328022,30.6066044 74.1628586,30.7745872 C74.231559,31.1428572 74.2573216,31.269921 74.2766436,31.3948312 C74.3088468,31.6101938 74.3324626,31.8255564 74.3539314,32.0258436 C74.3882816,32.3079684 74.401163,32.419957 74.4097504,32.5147164 C74.4419538,32.902369 74.456982,33.281407 74.456982,33.6389088 L74.456982,58.793252 C74.456982,59.1486002 74.4419538,59.523331 74.4097504,59.9109834 C74.4097504,60.0100502 74.3904284,60.1112706 74.3775472,60.2146446 C74.3474908,60.5786074 74.323875,60.804738 74.287378,61.0330222 C74.270203,61.149318 74.2465872,61.2677674 74.2251184,61.3862168 C74.1542712,61.7674084 74.119921,61.9569274 74.0769832,62.1486002 C74.0469268,62.2799712 74.0147236,62.4113424 73.9803734,62.5427136 C73.8837636,62.9282124 73.8408258,63.0961952 73.7914476,63.2663316 C73.7420692,63.436468 73.7034252,63.5613784 73.6561938,63.7078248 C73.559584,64.0071788 73.503765,64.1880832 73.4393584,64.3689878 C73.3749518,64.5498924 73.3277204,64.6791098 73.2676076,64.8341708 C73.1709978,65.086145 73.1001506,65.2713568 73.0271564,65.4565686 C72.9541624,65.6417804 72.8768744,65.8119168 72.7974398,65.9928212 C72.718005,66.1737258 72.6385702,66.3481694 72.5548416,66.5247666 C72.4711132,66.701364 72.3830908,66.8779612 72.2950686,67.0545586 C72.2242214,67.1988514 72.1898712,67.2720746 72.1512272,67.3409906 L71.3203828,68.9239052 C69.6758686,71.413496 67.7136156,73.4637474 65.6096682,74.775305 L50.186445,84.3933956 C51.496045,84.959799 52.3505054,86.3316582 52.3505054,88.0545586 L52.3505054,96.005743 C52.3419178,98.2907394 50.841245,99.9490308 48.7759416,99.9490308 Z" id="path-1"></path>
                        </g>
                    </g>
                    <path d="M37.2235524,93.315865 C33.4079958,93.315865 30.314876,90.2130344 30.314876,86.385499 L30.314876,76.2634602 C30.314876,72.43533 33.4084764,69.3320172 37.2246258,69.3320172 C41.0407754,69.3320172 44.1343758,72.43533 44.1343758,76.2634602 L44.1343758,86.385499 C44.1343758,88.2239194 43.4062048,89.9870116 42.1101124,91.2867694 C40.8140198,92.586527 39.0562194,93.3164364 37.2235524,93.315865 Z" id="Shape" fill="#E1DEEC" fill-rule="nonzero"></path>
                    <ellipse id="Oval" fill="#9B86F9" fill-rule="nonzero" cx="37.2729308" cy="92.0301508" rx="2.9090294" ry="2.91816224"></ellipse>
                    <path d="M2.36243106,33.632448 C2.36243106,28.5778894 5.86400078,22.2569992 10.1448898,19.5886576 L29.492619,7.52835606 C33.773508,4.86001436 40.7766474,4.86001436 45.0553896,7.52835606 L64.4031186,19.5886576 C68.6818608,22.2569992 72.1898712,28.5778894 72.1898712,33.632448 L72.1898712,58.793252 C72.1898712,63.8478104 68.6883014,70.1687006 64.4074124,72.8370424 L45.0596834,84.8973438 C40.7787942,87.5656856 33.7756548,87.5656856 29.4969128,84.8973438 L10.1448898,72.8284278 C5.86400078,70.1600862 2.36243106,63.839196 2.36243106,58.7846374 L2.36243106,33.632448 Z" id="Shape" fill="#EFEDF7" fill-rule="nonzero"></path>
                    <ellipse id="Oval" fill="#50467B" fill-rule="nonzero" cx="25.6089036" cy="52.252692" rx="2.9090294" ry="2.91816224"></ellipse>
                    <ellipse id="Oval" fill="#50467B" fill-rule="nonzero" cx="49.140912" cy="52.252692" rx="2.9090294" ry="2.91816224"></ellipse>
                    <path d="M14.3227283,46.1687006 C14.3227283,36.1134242 10.0633082,27.763819 4.457791,26.0710696 C3.1696599,28.5240488 2.36243106,31.2225412 2.36243106,33.6346016 L2.36243106,58.793252 C2.36243106,61.1794688 3.14175038,63.8456568 4.4148533,66.2770998 C10.0418393,64.614501 14.3227283,56.2455132 14.3227283,46.1687006 Z" id="Shape" fill="#9B86F9" fill-rule="nonzero"></path>
                    <path d="M60.2231332,46.1687006 C60.2231332,36.1134242 64.4825534,27.763819 70.0880706,26.0710696 C71.3762018,28.5240488 72.1834306,31.2225412 72.1834306,33.6346016 L72.1834306,58.793252 C72.1834306,61.1794688 71.4041112,63.8456568 70.1310084,66.2770998 C64.5040222,64.614501 60.2231332,56.2455132 60.2231332,46.1687006 Z" id="Shape" fill="#9B86F9" fill-rule="nonzero"></path>
                    <path d="M44.9652204,29.6288586 L62.7306952,18.4989232 L45.1262368,7.51543432 C40.8453478,4.8470926 33.8422084,4.8470926 29.5634662,7.51543432 L11.7894038,18.5570711 L29.4217718,29.6223978 C33.6962202,32.3058148 40.690772,32.3058148 44.9652204,29.6288586 Z" id="Shape" fill="#9B86F9" fill-rule="nonzero"></path>
                    <path d="M48.840348,63.1048098 C48.840348,69.1672648 43.6405922,74.0882986 37.2256994,74.0882986 C30.8108064,74.0882986 25.602463,69.1672648 25.602463,63.1048098" id="Shape" fill="#9B86F9" fill-rule="nonzero"></path>
                    <path d="M33.6704574,90.6798278 C34.9585886,91.4228284 34.9585886,92.6353194 33.6704574,93.3783202 L26.800425,97.3539124 C25.5122938,98.0969132 24.4710546,97.4895908 24.4710546,96.005743 L24.4710546,88.0524048 C24.4710546,86.568557 25.5187346,85.9612348 26.800425,86.7042354 L33.6704574,90.6798278 Z" id="Shape" fill="#9B86F9" fill-rule="nonzero"></path>
                    <path d="M40.8754042,90.6798278 C39.587273,91.4228284 39.587273,92.6353194 40.8754042,93.3783202 L47.7454366,97.3539124 C49.0335678,98.0969132 50.074807,97.4895908 50.074807,96.005743 L50.074807,88.0524048 C50.074807,86.568557 49.0271272,85.9612348 47.7454366,86.7042354 L40.8754042,90.6798278 Z" id="Shape" fill="#9B86F9" fill-rule="nonzero"></path>
                    <path d="M27.5131908,20.0043072 C27.1361594,20.004901 26.7744874,19.8545064 26.5084486,19.5865039 L14.4622759,7.50251256 C14.1036995,7.1428105 13.9636595,6.61853328 14.0949076,6.12717112 C14.2261556,5.63580894 14.608752,5.25201138 15.0985764,5.1203513 C15.5884008,4.9886912 16.1110372,5.12917086 16.4696135,5.48887294 L28.5157862,17.5728643 C28.9227376,17.9800398 29.044657,18.5932515 28.824559,19.1258817 C28.6044608,19.658512 28.085817,20.0053598 27.511044,20.0043072 L27.5131908,20.0043072 Z" id="Shape" fill="#EFEDF7" fill-rule="nonzero"></path>
                    <ellipse id="Oval" fill="#9B86F9" fill-rule="nonzero" cx="14.6640831" cy="5.52117732" rx="3.21174022" ry="3.2218234"></ellipse>
                    <path d="M47.2001278,20.0043072 C46.6253546,20.0053598 46.106711,19.658512 45.8866128,19.1258817 C45.6665146,18.5932515 45.7884342,17.9800398 46.1953856,17.5728643 L58.2351176,5.48887294 C58.593694,5.12917086 59.1163304,4.98869122 59.6061546,5.1203513 C60.095979,5.2520114 60.4785754,5.63580894 60.6098236,6.12717112 C60.7410716,6.6185333 60.6010316,7.14281048 60.2424552,7.50251256 L48.20487,19.5865039 C47.9388314,19.8545064 47.5771592,20.004901 47.2001278,20.0043072 Z" id="Shape" fill="#EFEDF7" fill-rule="nonzero"></path>
                    <ellipse id="Oval" fill="#9B86F9" fill-rule="nonzero" cx="60.0492356" cy="5.52117732" rx="3.21174022" ry="3.2218234"></ellipse>
                </g>
            </g>
        </g>
    </g>
</svg>