<?xml version="1.0" encoding="UTF-8"?>
<svg width="116px" height="116px" viewBox="0 0 116 116" version="1.1" xmlns="http://www.w3.org/2000/svg" xmlns:xlink="http://www.w3.org/1999/xlink">
    <!-- Generator: Sketch 43.2 (39069) - http://www.bohemiancoding.com/sketch -->
    <title>icn-star</title>
    <desc>Created with Sketch.</desc>
    <defs>
        <circle id="path-1" cx="48" cy="48" r="48"></circle>
        <filter x="-20.3%" y="-10.9%" width="140.6%" height="140.6%" filterUnits="objectBoundingBox" id="filter-2">
            <feOffset dx="0" dy="9" in="SourceAlpha" result="shadowOffsetOuter1"></feOffset>
            <feGaussianBlur stdDeviation="5" in="shadowOffsetOuter1" result="shadowBlurOuter1"></feGaussianBlur>
            <feColorMatrix values="0 0 0 0 0   0 0 0 0 0   0 0 0 0 0  0 0 0 0.0576596467 0" type="matrix" in="shadowBlurOuter1"></feColorMatrix>
        </filter>
    </defs>
    <g id="Page-1" stroke="none" stroke-width="1" fill="none" fill-rule="evenodd">
        <g id="home" transform="translate(-783.000000, -3667.000000)">
            <g id="icn-star" transform="translate(793.000000, 3668.000000)">
                <g id="Oval-2-Copy-3">
                    <use fill="black" fill-opacity="1" filter="url(#filter-2)" xlink:href="#path-1"></use>
                    <use fill="#FFFFFF" fill-rule="evenodd" xlink:href="#path-1"></use>
                </g>
                <g id="favorites" transform="translate(23.000000, 24.000000)" fill-rule="nonzero">
                    <g id="Group" transform="translate(2.832031, 0.000000)" fill="#1E0478">
                        <path d="M46.2561523,29.3143953 C46.9486328,29.5380909 47.3285156,30.2757055 47.1029297,30.9623834 C46.9222656,31.5156186 46.4051758,31.8661719 45.8486328,31.8661719 C45.7140625,31.8661719 45.5769531,31.8452549 45.4411133,31.8020652 L43.1764648,31.0722945 C42.4827148,30.8485988 42.1041016,30.1109842 42.3296875,29.4243063 C42.5539063,28.7376285 43.2991211,28.3609289 43.9916016,28.5846245 L46.2561523,29.3143953 Z" id="Shape"></path>
                        <path d="M44.1167969,15.8913972 C44.5072266,17.0828913 44.1879883,18.367253 43.2819336,19.2435395 L35.3655273,26.8948024 C35.2098633,27.0451917 35.1399414,27.2623024 35.1755859,27.4741838 L37.0445312,38.2787806 C37.2582031,39.5147233 36.7556641,40.7403043 35.7334961,41.4766601 C35.1557617,41.8925791 34.4791992,42.1044605 33.7985352,42.1044605 C33.2736328,42.1044605 32.7473633,41.9788617 32.2606445,41.7251462 L22.475293,36.6243043 C22.2827148,36.5235929 22.0532227,36.5235929 21.8620117,36.6243043 L12.0766602,41.7251462 C10.9568359,42.308498 9.62607422,42.2142747 8.60380859,41.4766601 C7.58027344,40.7403043 7.07773438,39.5148202 7.29140625,38.2787806 L9.16035156,27.4741838 C9.19726562,27.2623024 9.12607422,27.0451917 8.97041016,26.8948024 L1.05400391,19.2435395 C0.14921875,18.367253 -0.171289062,17.0828913 0.220410156,15.8913972 C0.610839844,14.6985474 1.63037109,13.8457925 2.88203125,13.6653834 L13.8228516,12.0893458 C14.0365234,12.0579704 14.2224609,11.9245277 14.31875,11.7309486 L19.2107422,1.90073518 C19.7714844,0.777124506 20.9043945,0.078729249 22.1679687,0.078729249 C23.4328125,0.078729249 24.5658203,0.777124506 25.1250977,1.90063834 L30.018457,11.7308518 C30.1147461,11.9244308 30.2994141,12.0578735 30.5143555,12.089249 L41.4551758,13.6652866 C42.7055664,13.8457925 43.7264648,14.6985474 44.1167969,15.8913972 Z M41.440625,17.3693379 C41.7057617,17.1142668 41.6463867,16.8161028 41.6081055,16.6997036 C41.5698242,16.5833043 41.4418945,16.3073162 41.0751953,16.2550237 L30.1357422,14.6777273 C29.0607422,14.5233676 28.1322266,13.8550889 27.6521484,12.8898083 L22.7602539,3.05814229 C22.6785156,2.89467984 22.5611328,2.80307115 22.4490234,2.75339328 C22.3369141,2.70371542 22.2300781,2.69451581 22.1680664,2.69451581 C22.0454102,2.69451581 21.7407227,2.72986166 21.5771484,3.05814229 L16.6837891,12.8897115 C16.2037109,13.8549921 15.2750977,14.5232708 14.2014648,14.6776304 L3.26064453,16.2549269 C2.8953125,16.3072194 2.76738281,16.5832075 2.72910156,16.6996067 C2.69082031,16.8160059 2.63017578,17.11417 2.8953125,17.3692411 L10.8117187,25.0218597 C11.5899414,25.7739032 11.9433594,26.855583 11.7600586,27.916249 L9.89111328,38.7208458 C9.82910156,39.0818577 10.0546875,39.2885099 10.1536133,39.3604605 C10.2538086,39.4324111 10.521582,39.5815415 10.8487305,39.4101383 L20.634082,34.3092964 C21.1141602,34.0581957 21.6417969,33.9325968 22.1680664,33.9325968 C22.6956055,33.9325968 23.221875,34.0581957 23.7033203,34.3092964 L33.4886719,39.4101383 C33.8158203,39.5814447 34.0834961,39.4324111 34.1824219,39.3604605 C34.2826172,39.2885099 34.5082031,39.0818577 34.4449219,38.7208458 L32.5759766,27.916249 C32.3926758,26.855583 32.7474609,25.7739032 33.5243164,25.0218597 L41.440625,17.3693379 Z" id="Shape"></path>
                    </g>
                    <path d="M44.4402344,16.6996067 C44.4785156,16.8160059 44.537793,17.11417 44.2727539,17.3692411 L36.3563477,25.0218597 C35.5794922,25.7739032 35.224707,26.855583 35.4080078,27.916249 L37.2769531,38.7208458 C37.3402344,39.0818577 37.1147461,39.2885099 37.0144531,39.3604605 C36.9155273,39.4324111 36.6477539,39.5815415 36.3207031,39.4101383 L26.5353516,34.3092964 C26.0539062,34.0581957 25.5276367,33.9325968 25.0000977,33.9325968 C24.4738281,33.9325968 23.9462891,34.0581957 23.4661133,34.3092964 L13.6806641,39.4102352 C13.3535156,39.5815415 13.0858398,39.4325079 12.9855469,39.3605573 C12.8866211,39.2886067 12.6610352,39.0819545 12.7230469,38.7209427 L14.5919922,27.9163458 C14.775293,26.8556798 14.421875,25.774 13.6436523,25.0219565 L5.72724609,17.3693379 C5.46210937,17.1142668 5.52285156,16.8161028 5.56103516,16.6997036 C5.59931641,16.5833043 5.72724609,16.3073162 6.09257812,16.2550237 L17.0333984,14.6777273 C18.1070312,14.5233676 19.0355469,13.8550889 19.5157227,12.8898083 L24.4091797,3.05814229 C24.5727539,2.72986166 24.8774414,2.69451581 25.0000977,2.69451581 C25.0621094,2.69451581 25.1689453,2.70371542 25.2810547,2.75339328 C25.3931641,2.80307115 25.5105469,2.89467984 25.5922852,3.05814229 L30.4842773,12.8897115 C30.9643555,13.8549921 31.8929688,14.5232708 32.9678711,14.6776304 L43.9073242,16.2549269 C44.2740234,16.3073162 44.4019531,16.5832075 44.4402344,16.6996067 Z" id="Shape" fill="#94E7EF"></path>
                    <g id="Group" transform="translate(0.000000, 1.549407)" fill="#1E0478">
                        <path d="M40.4081055,0.351231225 C40.9976563,0.774994071 41.1282227,1.59375889 40.7008789,2.17711067 L39.3000977,4.08801383 C39.0428711,4.44118182 38.640625,4.62817589 38.2317383,4.62817589 C37.9639648,4.62817589 37.6922852,4.54712253 37.4575195,4.37833399 C36.8692383,3.95321542 36.7386719,3.13580632 37.1660156,2.55119565 L38.5667969,0.64029249 C38.9942383,0.0556818182 39.8199219,-0.0737905138 40.4081055,0.351231225 Z" id="Shape"></path>
                        <path d="M26.3189453,43.7018992 L26.3189453,46.0639704 C26.3189453,46.787253 25.7293945,47.3718636 25,47.3718636 C24.2719727,47.3718636 23.6810547,46.787253 23.6810547,46.0639704 L23.6810547,43.7018992 C23.6810547,42.9799723 24.2719727,42.3940059 25,42.3940059 C25.7293945,42.3940059 26.3189453,42.9799723 26.3189453,43.7018992 Z" id="Shape"></path>
                        <path d="M12.8286133,2.54335178 C13.255957,3.12796245 13.1253906,3.94546838 12.5371094,4.37049012 C12.3023438,4.53918182 12.0306641,4.62033202 11.7628906,4.62033202 C11.3540039,4.62033202 10.9517578,4.43333794 10.6945313,4.08142885 L9.29384766,2.17052569 C8.86650391,1.58591502 8.99707031,0.767150198 9.58535156,0.343387352 C10.1749023,-0.0817312253 11.0005859,0.0478379447 11.4279297,0.632448617 L12.8286133,2.54335178 Z" id="Shape"></path>
                        <path d="M4.83837891,27.8722846 C5.06396484,28.5602213 4.68535156,29.2979328 3.99160156,29.5215316 L1.72695313,30.2513024 C1.59111328,30.2944921 1.45390625,30.3154091 1.31943359,30.3154091 C0.762792969,30.3154091 0.245800781,29.9635968 0.0651367188,29.4116206 C-0.160449219,28.7236838 0.219433594,27.9859723 0.911914062,27.7623735 L3.1765625,27.0326028 C3.87021484,26.8102628 4.61416016,27.1856067 4.83837891,27.8722846 Z" id="Shape"></path>
                    </g>
                </g>
            </g>
        </g>
    </g>
</svg>