<?xml version="1.0" encoding="UTF-8"?>
<svg width="114px" height="114px" viewBox="0 0 114 114" version="1.1" xmlns="http://www.w3.org/2000/svg" xmlns:xlink="http://www.w3.org/1999/xlink">
    <!-- Generator: Sketch 43.2 (39069) - http://www.bohemiancoding.com/sketch -->
    <title>icn-doc</title>
    <desc>Created with Sketch.</desc>
    <defs>
        <circle id="path-1" cx="47" cy="47" r="47"></circle>
        <filter x="-20.7%" y="-11.2%" width="141.5%" height="141.5%" filterUnits="objectBoundingBox" id="filter-2">
            <feOffset dx="0" dy="9" in="SourceAlpha" result="shadowOffsetOuter1"></feOffset>
            <feGaussianBlur stdDeviation="5" in="shadowOffsetOuter1" result="shadowBlurOuter1"></feGaussianBlur>
            <feColorMatrix values="0 0 0 0 0   0 0 0 0 0   0 0 0 0 0  0 0 0 0.0576596467 0" type="matrix" in="shadowBlurOuter1"></feColorMatrix>
        </filter>
    </defs>
    <g id="Page-1" stroke="none" stroke-width="1" fill="none" fill-rule="evenodd">
        <g id="home" transform="translate(-1075.000000, -2914.000000)">
            <g id="icn-doc" transform="translate(1085.000000, 2915.000000)">
                <g id="Oval-2-Copy-2">
                    <use fill="black" fill-opacity="1" filter="url(#filter-2)" xlink:href="#path-1"></use>
                    <use fill="#FFFFFF" fill-rule="evenodd" xlink:href="#path-1"></use>
                </g>
                <g id="file" transform="translate(29.000000, 22.000000)" fill-rule="nonzero">
                    <path d="M36.9959531,10.1118908 L36.9959531,47.4429825 C36.9959531,48.7996101 35.905513,49.9026316 34.5643594,49.9026316 L2.43564063,49.9026316 C1.09448698,49.9026316 0.004046875,48.7996101 0.004046875,47.4429825 L0.004046875,2.45964912 C0.004046875,1.10302144 1.09448698,0 2.43564063,0 L26.9994974,0 C27.3183333,0 27.6059505,0.129727096 27.8150391,0.34122807 L27.8161953,0.34122807 L36.6587135,9.28576998 C36.8758958,9.50662768 36.9914245,9.79990253 36.993737,10.1001949 C36.9947969,10.1037037 36.9959531,10.1072125 36.9959531,10.1118908 Z M34.6856693,47.442885 L34.6856693,11.2803119 L28.2758047,11.2803119 C26.9347474,11.2803119 25.8442109,10.1772904 25.8442109,8.82066277 L25.8442109,2.33693957 L2.43564063,2.33693957 C2.36867448,2.33693957 2.31433073,2.39181287 2.31433073,2.45964912 L2.31433073,47.4429825 C2.31433073,47.5107212 2.36857812,47.565692 2.43564063,47.565692 L34.5644557,47.565692 C34.6314219,47.5655945 34.6856693,47.5107212 34.6856693,47.442885 Z M28.275901,8.94337232 L33.0523698,8.94337232 L28.1545911,3.98908382 L28.1545911,8.82066277 C28.1545911,8.88849903 28.2088385,8.94337232 28.275901,8.94337232 Z" id="Shape" fill="#1E0478"></path>
                    <g id="Group" transform="translate(2.312500, 2.241715)" fill="#94E7EF">
                        <path d="M32.3731693,9.03859649 L32.3731693,45.2012671 C32.3731693,45.2690058 32.3189219,45.3239766 32.2518594,45.3239766 L0.123140625,45.3239766 C0.0561744792,45.3239766 0.00183072917,45.2691033 0.00183072917,45.2012671 L0.00183072917,0.217933723 C0.00183072917,0.150194932 0.056078125,0.0952241715 0.123140625,0.0952241715 L23.5319036,0.0952241715 L23.5319036,6.57894737 C23.5319036,7.93557505 24.6223437,9.03859649 25.9634974,9.03859649 C25.963401,9.03859649 32.3731693,9.03859649 32.3731693,9.03859649 Z M27.5644219,14.9124756 C27.5644219,14.2674464 27.0480599,13.7440546 26.4093281,13.7440546 L5.96586458,13.7440546 C5.32703646,13.7440546 4.81077083,14.2675439 4.81077083,14.9124756 C4.81077083,15.5574074 5.32713281,16.0808967 5.96586458,16.0808967 L26.4093281,16.0808967 C27.0480599,16.0808967 27.5644219,15.5574074 27.5644219,14.9124756 Z M27.5644219,21.9628655 C27.5644219,21.3178363 27.0480599,20.7944444 26.4093281,20.7944444 L5.96586458,20.7944444 C5.32703646,20.7944444 4.81077083,21.3179337 4.81077083,21.9628655 C4.81077083,22.6077973 5.32713281,23.1312865 5.96586458,23.1312865 L26.4093281,23.1312865 C27.0480599,23.131384 27.5644219,22.6078947 27.5644219,21.9628655 Z M27.5644219,29.0133528 C27.5644219,28.3683236 27.0480599,27.8449318 26.4093281,27.8449318 L5.96586458,27.8449318 C5.32703646,27.8449318 4.81077083,28.3684211 4.81077083,29.0133528 C4.81077083,29.6595517 5.32713281,30.1817739 5.96586458,30.1817739 L26.4093281,30.1817739 C27.0480599,30.1818713 27.5644219,29.6595517 27.5644219,29.0133528 Z M17.3425937,36.0650097 C17.3425937,35.4188109 16.8250755,34.8965887 16.1875,34.8965887 L5.96576823,34.8965887 C5.3269401,34.8965887 4.81067448,35.4189084 4.81067448,36.0650097 C4.81067448,36.710039 5.32703646,37.2334308 5.96576823,37.2334308 L16.1875,37.2334308 C16.8251719,37.2335283 17.3425937,36.710039 17.3425937,36.0650097 Z" id="Shape"></path>
                        <path d="M30.7398698,6.70165692 L25.963401,6.70165692 C25.8964349,6.70165692 25.8420911,6.64678363 25.8420911,6.57894737 L25.8420911,1.74736842 L30.7398698,6.70165692 Z" id="Shape"></path>
                    </g>
                    <g id="Group" transform="translate(7.033854, 15.984405)" fill="#1E0478">
                        <path d="M21.6878776,0.00126705653 C22.3267057,0.00126705653 22.8429714,0.524756335 22.8429714,1.16968811 C22.8429714,1.81461988 22.3266094,2.33810916 21.6878776,2.33810916 L1.24441406,2.33810916 C0.605585937,2.33810916 0.0893203125,1.81461988 0.0893203125,1.16968811 C0.0893203125,0.524756335 0.605682292,0.00126705653 1.24441406,0.00126705653 L21.6878776,0.00126705653 Z" id="Shape"></path>
                        <path d="M21.6878776,7.05175439 C22.3267057,7.05175439 22.8429714,7.57524366 22.8429714,8.22017544 C22.8429714,8.86510721 22.3266094,9.38859649 21.6878776,9.38859649 L1.24441406,9.38859649 C0.605585937,9.38859649 0.0893203125,8.86510721 0.0893203125,8.22017544 C0.0893203125,7.57524366 0.605682292,7.05175439 1.24441406,7.05175439 L21.6878776,7.05175439 Z" id="Shape"></path>
                        <path d="M21.6878776,14.1022417 C22.3267057,14.1022417 22.8429714,14.625731 22.8429714,15.2706628 C22.8429714,15.9168616 22.3266094,16.4390838 21.6878776,16.4390838 L1.24441406,16.4390838 C0.605585937,16.4390838 0.0893203125,15.9167641 0.0893203125,15.2706628 C0.0893203125,14.6256335 0.605682292,14.1022417 1.24441406,14.1022417 L21.6878776,14.1022417 Z" id="Shape"></path>
                        <path d="M11.4661458,21.1538986 C12.1038177,21.1538986 12.6212396,21.6762183 12.6212396,22.3223197 C12.6212396,22.9673489 12.1037214,23.4907407 11.4661458,23.4907407 L1.24441406,23.4907407 C0.605585937,23.4907407 0.0893203125,22.9672515 0.0893203125,22.3223197 C0.0893203125,21.6761209 0.605682292,21.1538986 1.24441406,21.1538986 L11.4661458,21.1538986 Z" id="Shape"></path>
                    </g>
                </g>
            </g>
        </g>
    </g>
</svg>