<?xml version="1.0" encoding="UTF-8"?>
<svg width="102px" height="134px" viewBox="0 0 102 134" version="1.1" xmlns="http://www.w3.org/2000/svg" xmlns:xlink="http://www.w3.org/1999/xlink">
    <!-- Generator: Sketch 43.2 (39069) - http://www.bohemiancoding.com/sketch -->
    <title>Isotype-scory</title>
    <desc>Created with Sketch.</desc>
    <defs>
        <path d="M62.895293,127.93476 C61.9069297,127.917477 60.9409703,127.638714 60.0964892,127.127064 L52.5028999,122.774329 C49.9715114,125.010093 46.1617205,125.010093 43.630332,122.774329 L36.0284376,127.127064 C35.1829147,127.634967 34.2169932,127.909913 33.2296338,127.923733 C30.5637109,127.923733 28.6314012,125.80112 28.6314012,122.873568 L28.6314012,112.707078 C28.6314012,110.501766 29.738742,108.745786 31.4219,108.02079 L11.5340597,95.701364 C8.82107482,94.02257 6.29356951,91.3954917 4.26713589,88.1840057 L3.10442808,86.1854415 C3.05459775,86.0917157 2.9189485,85.8188083 2.9189485,85.8188083 C2.80544608,85.5955205 2.69194365,85.369476 2.58397792,85.1406748 C2.4760122,84.9118737 2.37358317,84.6885858 2.27115415,84.4597846 C2.16872513,84.2309835 2.06629611,83.9966691 1.97217215,83.7651113 C1.87804818,83.5335535 1.78669257,83.3019957 1.69533695,83.0649246 C1.58737123,82.7865039 1.50985737,82.5797559 1.43788022,82.3730079 C1.36590307,82.1662599 1.28562087,81.9209189 1.21364372,81.6921177 C1.10014129,81.3392678 1.0420059,81.1518162 0.986638858,80.9753912 C0.93127182,80.7989663 0.864831374,80.5233022 0.806695983,80.2945011 C0.704266962,79.8920316 0.662741683,79.7238765 0.623984756,79.5557215 C0.571386069,79.3186504 0.527092438,79.0815793 0.482798807,78.8445083 C0.402516602,78.4227423 0.374833082,78.2766403 0.352686267,78.133295 C0.305624284,77.8217947 0.272404061,77.5213209 0.239183838,77.2208471 C0.205963615,76.953453 0.192121855,76.8238909 0.181048447,76.6943288 C0.14229152,76.1981335 0.120144705,75.7184781 0.120144705,75.2636324 L0.120144705,43.0495334 C0.120144705,42.5891744 0.139523168,42.1040057 0.181048447,41.6105671 C0.181048447,41.4782484 0.208731967,41.3349031 0.225342078,41.2108543 C0.277940765,40.7339555 0.308392636,40.4582915 0.349917915,40.1826274 C0.374833082,40.017229 0.405284953,39.8573439 0.438505177,39.6974587 C0.535397494,39.1736971 0.574154421,38.9614358 0.623984756,38.7464178 C0.673815091,38.5313999 0.712572018,38.3797846 0.759634,38.1950897 C0.886978189,37.6961378 0.936808524,37.503173 0.992175562,37.3129648 C1.0475426,37.1227566 1.1112147,36.9215219 1.17488679,36.7258004 C1.33268285,36.2433884 1.38528154,36.0724767 1.44618528,35.9043216 C1.52369913,35.6837904 1.60951804,35.4632592 1.69533695,35.2427279 C1.85036466,34.8402584 1.9112684,34.6776167 1.9804772,34.5149749 C2.08567457,34.2586073 2.199177,34.0105097 2.30991108,33.7596554 C2.44279197,33.4702082 2.51476912,33.3048098 2.59228298,33.142168 C2.71685881,32.8830438 2.84697135,32.6266762 2.97985225,32.3703087 C2.97985225,32.3703087 3.11550149,32.0946447 3.16533183,31.9981622 L3.99583741,30.451687 C6.12193169,27.0858291 8.73525591,24.3319454 11.5368281,22.595262 L21.4143077,16.4810337 L19.0279884,14.1048098 C14.9902495,14.1048098 11.8247367,10.9526887 11.8247367,7.06435032 C11.8247367,3.17601194 14.9902495,0.023890883 18.8951075,0.023890883 C22.7999655,0.023890883 25.9654783,3.17601194 25.9654783,7.06435032 C25.9654783,7.24353195 25.9654783,7.41995693 25.9460998,7.59638191 L29.7165952,11.3481694 L36.4824473,7.16083274 C39.6079166,5.23118449 43.7216876,4.16160804 48.0652318,4.16160804 C52.5084366,4.16160804 56.6194392,5.22567121 59.7476769,7.16083274 L66.5855062,11.3922757 L70.3864534,7.59913855 C70.3864534,7.42271357 70.3670749,7.24628859 70.3670749,7.06710696 C70.3659558,4.2187548 72.0884858,1.65035359 74.7310934,0.560079298 C77.373701,-0.530194995 80.4156817,0.0724873813 82.4379316,2.08697116 C84.4601815,4.10145493 85.0642325,7.13080233 83.968291,9.76180297 C82.8723494,12.3928036 80.2923617,14.10704 77.431909,14.1048098 L74.8794885,16.5223833 L86.2906352,23.7916439 C88.592482,25.6595378 90.5478916,27.9145596 92.0681857,30.4544436 L92.959595,31.992649 C93.0121937,32.0891314 93.1506113,32.3730653 93.1506113,32.3730653 C93.2807238,32.6266762 93.4108364,32.8830438 93.5354122,33.1394113 C93.6184627,33.3130797 93.6959766,33.4839914 93.7734905,33.6576597 C93.9257498,33.9967265 94.0420206,34.2558507 94.1499863,34.5177315 C94.2164268,34.6776167 94.2800989,34.8430151 94.343771,35.0111701 C94.5098721,35.441206 94.6012277,35.6727638 94.6842782,35.9070782 C94.745182,36.0835032 94.8033174,36.2571716 94.8586844,36.4335966 C95.0054071,36.8911989 95.0773842,37.1089734 95.138288,37.3239914 C95.1991917,37.5390093 95.2434853,37.7071644 95.2933157,37.9056425 C95.4123548,38.3715147 95.4621851,38.5589663 95.5037104,38.7491744 C95.5452357,38.9393826 95.5922977,39.1764537 95.6310546,39.3914716 C95.7196419,39.8628571 95.7528621,40.0254989 95.7777773,40.1853841 C95.8193025,40.4610481 95.8497544,40.7367121 95.8774379,40.9930797 C95.9217316,41.3541996 95.9383417,41.4975449 95.9494151,41.618837 C95.9909403,42.1150323 96.0103188,42.600201 96.0103188,43.0578033 L96.0103188,75.2553625 C96.0103188,75.7102082 95.9909403,76.1898636 95.9494151,76.6860589 C95.9494151,76.8128643 95.9244999,76.9424264 95.9078898,77.0747452 C95.8691329,77.5406174 95.838681,77.8300646 95.791619,78.1222685 C95.7694722,78.2711271 95.7390203,78.4227423 95.7113368,78.5743575 C95.6199812,79.0622828 95.5756876,79.3048672 95.5203205,79.5502082 C95.4815636,79.7183632 95.4400383,79.8865183 95.3957447,80.0546734 C95.2711688,80.548112 95.2158018,80.7631299 95.1521297,80.9809045 C95.0884576,81.1986791 95.0386273,81.3585642 94.9777235,81.5460158 C94.8531477,81.9291888 94.7811706,82.1607466 94.69812,82.3923044 C94.6150694,82.6238622 94.5541657,82.7892606 94.4766518,82.9877387 C94.352076,83.3102656 94.2607204,83.5473367 94.1665964,83.7844078 C94.0724725,84.0214788 93.9728118,84.2392534 93.8703828,84.4708112 C93.7679538,84.702369 93.6655247,84.9256569 93.557559,85.1517014 C93.4495933,85.3777459 93.3360908,85.6037904 93.2225884,85.8298349 C93.1312328,86.0145298 93.0869392,86.1082556 93.0371088,86.1964681 L91.9657566,88.2225987 C89.8451991,91.4092749 87.3149254,94.0335966 84.6019405,95.7123905 L64.7141003,108.023546 C66.4027949,108.748543 67.504599,110.504523 67.504599,112.709835 L67.504599,122.887351 C67.4935256,125.812146 65.5584476,127.93476 62.895293,127.93476 Z" id="path-1"></path>
        <filter x="-4.7%" y="-3.5%" width="109.4%" height="107.0%" filterUnits="objectBoundingBox" id="filter-2">
            <feOffset dx="0" dy="0" in="SourceAlpha" result="shadowOffsetOuter1"></feOffset>
            <feGaussianBlur stdDeviation="1.5" in="shadowOffsetOuter1" result="shadowBlurOuter1"></feGaussianBlur>
            <feColorMatrix values="0 0 0 0 0   0 0 0 0 0   0 0 0 0 0  0 0 0 0.358780571 0" type="matrix" in="shadowBlurOuter1"></feColorMatrix>
        </filter>
    </defs>
    <g id="Page-1" stroke="none" stroke-width="1" fill="none" fill-rule="evenodd">
        <g id="home" transform="translate(-669.000000, -4518.000000)" fill-rule="nonzero">
            <g id="Isotype-scory" transform="translate(672.000000, 4521.000000)">
                <g id="logo">
                    <g id="Shape">
                        <use fill="black" fill-opacity="1" filter="url(#filter-2)" xlink:href="#path-1"></use>
                        <use fill="#FFFFFF" fill-rule="evenodd" xlink:href="#path-1"></use>
                    </g>
                    <path d="M47.9987913,119.444307 C43.0787314,119.444307 39.0902348,115.472684 39.0902348,110.573439 L39.0902348,97.617229 C39.0902348,92.7172223 43.0793511,88.7449821 48.0001755,88.7449821 C52.9209998,88.7449821 56.9101162,92.7172223 56.9101162,97.617229 L56.9101162,110.573439 C56.9101163,112.926617 55.9711589,115.183375 54.2998817,116.847065 C52.6286045,118.510755 50.361967,119.445039 47.9987913,119.444307 Z" id="Shape" fill="#DDE3E8"></path>
                    <ellipse id="Oval" fill="#9B86F9" cx="48.0624634" cy="117.798593" rx="3.75111686" ry="3.73524767"></ellipse>
                    <path d="M3.04629269,43.0495334 C3.04629269,36.5796985 7.56147469,28.4889591 13.0815684,25.0734817 L38.029956,9.63629576 C43.5500498,6.22081838 52.5804138,6.22081838 58.0977391,9.63629576 L83.0461267,25.0734817 C88.5634521,28.4889591 93.0869392,36.5796985 93.0869392,43.0495334 L93.0869392,75.2553625 C93.0869392,81.7251974 88.5717572,89.8159368 83.0516634,93.2314142 L58.1032759,108.6686 C52.5831821,112.084078 43.5528181,112.084078 38.0354927,108.6686 L13.0815684,93.2203877 C7.56147469,89.8049103 3.04629269,81.7141709 3.04629269,75.244336 L3.04629269,43.0495334 Z" id="Shape" fill="#F1F5FA"></path>
                    <ellipse id="Oval" fill="#49546E" cx="33.0220074" cy="66.8834458" rx="3.75111686" ry="3.73524767"></ellipse>
                    <ellipse id="Oval" fill="#49546E" cx="63.3659129" cy="66.8834458" rx="3.75111686" ry="3.73524767"></ellipse>
                    <path d="M18.4687813,59.0959368 C18.4687813,46.2251831 12.9763711,35.5376884 5.74820418,33.3709691 C4.08719302,36.5107825 3.04629269,39.9648528 3.04629269,43.05229 L3.04629269,75.2553625 C3.04629269,78.30972 4.05120444,81.7224408 5.69283714,84.8346877 C12.9486875,82.7065614 18.4687813,71.994257 18.4687813,59.0959368 Z" id="Shape" fill="#9B86F9"></path>
                    <path d="M77.6561455,59.0959368 C77.6561455,46.2251831 83.1485558,35.5376884 90.3767226,33.3709691 C92.0377338,36.5107825 93.0786341,39.9648528 93.0786341,43.05229 L93.0786341,75.2553625 C93.0786341,78.30972 92.0737224,81.7224408 90.4320897,84.8346877 C83.1762393,82.7065614 77.6561455,71.994257 77.6561455,59.0959368 Z" id="Shape" fill="#9B86F9"></path>
                    <path d="M57.9814684,37.924939 L80.8895806,23.6786217 L58.1890948,9.61975592 C52.669001,6.20427854 43.638637,6.20427854 38.1213116,9.61975592 L15.202126,23.753051 L37.9386004,37.9166691 C43.4503891,41.3514429 52.4696797,41.3514429 57.9814684,37.924939 Z" id="Shape" fill="#9B86F9"></path>
                    <path d="M62.9783436,80.7741565 C62.9783436,88.5340991 56.2733952,94.8330223 48.0015597,94.8330223 C39.7297241,94.8330223 33.0137023,88.5340991 33.0137023,80.7741565" id="Shape" fill="#9B86F9"></path>
                    <path d="M43.4171689,116.070179 C45.07818,117.02122 45.07818,118.573209 43.4171689,119.52425 L34.5584427,124.613008 C32.8974315,125.564049 31.5547809,124.786676 31.5547809,122.887351 L31.5547809,112.707078 C31.5547809,110.807753 32.9057366,110.03038 34.5584427,110.981421 L43.4171689,116.070179 Z" id="Shape" fill="#9B86F9"></path>
                    <path d="M52.7077579,116.070179 C51.0467468,117.02122 51.0467468,118.573209 52.7077579,119.52425 L61.5664841,124.613008 C63.2274953,125.564049 64.570146,124.786676 64.570146,122.887351 L64.570146,112.707078 C64.570146,110.807753 63.2191902,110.03038 61.5664841,110.981421 L52.7077579,116.070179 Z" id="Shape" fill="#9B86F9"></path>
                    <path d="M35.4775355,25.6055133 C34.9913634,25.6062733 34.5249968,25.4137682 34.1819468,25.0707251 L18.6487242,9.60321608 C18.1863494,9.14279743 18.0057715,8.47172261 18.1750124,7.84277902 C18.3442533,7.21383544 18.8376013,6.72257457 19.4692169,6.55404965 C20.1008326,6.38552473 20.7747585,6.56533869 21.2371332,7.02575736 L36.7703559,22.4932663 C37.2951091,23.014451 37.452321,23.7993619 37.1685102,24.4811286 C36.8846994,25.1628954 36.215922,25.6068606 35.4747672,25.6055133 L35.4775355,25.6055133 Z" id="Shape" fill="#F1F5FA"></path>
                    <ellipse id="Oval" fill="#9B86F9" cx="18.9089492" cy="7.06710696" rx="4.14145449" ry="4.12393396"></ellipse>
                    <path d="M60.8633227,25.6055133 C60.1221679,25.6068606 59.4533905,25.1628954 59.1695797,24.4811286 C58.8857689,23.7993619 59.0429808,23.014451 59.567734,22.4932663 L75.0926516,7.02575736 C75.5550264,6.5653387 76.2289523,6.38552475 76.8605679,6.55404967 C77.4921835,6.7225746 77.9855315,7.21383545 78.1547724,7.84277903 C78.3240133,8.47172261 78.1434354,9.14279742 77.6810607,9.60321608 L62.1589114,25.0707251 C61.8158615,25.4137682 61.3494948,25.6062733 60.8633227,25.6055133 Z" id="Shape" fill="#F1F5FA"></path>
                    <ellipse id="Oval" fill="#9B86F9" cx="77.431909" cy="7.06710696" rx="4.14145449" ry="4.12393396"></ellipse>
                </g>
            </g>
        </g>
    </g>
</svg>