<?xml version="1.0" encoding="UTF-8"?>
<svg width="158px" height="60px" viewBox="0 0 158 60" version="1.1" xmlns="http://www.w3.org/2000/svg" xmlns:xlink="http://www.w3.org/1999/xlink">
    <!-- Generator: Sketch 46.2 (44496) - http://www.bohemiancoding.com/sketch -->
    <title>Page 1</title>
    <desc>Created with Sketch.</desc>
    <defs>
        <polygon id="path-1" points="106.725 33.7884 106.725 0.7214 0.9394 0.7214 0.9394 33.7884"></polygon>
        <polygon id="path-3" points="22.22175 0.49 0 0.49 0 60 22.22175 60 44.4435 60 44.4435 0.49"></polygon>
    </defs>
    <g id="Page-1" stroke="none" stroke-width="1" fill="none" fill-rule="evenodd">
        <g id="Login" transform="translate(-186.000000, -178.000000)">
            <g id="Page-1" transform="translate(186.000000, 177.000000)">
                <g id="Group-3" transform="translate(51.000000, 13.509900)">
                    <mask id="mask-2" fill="white">
                        <use xlink:href="#path-1"></use>
                    </mask>
                    <g id="Clip-2"></g>
                    <path d="M92.5094,33.7884 C95.9594,33.7884 97.6654,32.2354 99.3714,28.1054 L106.4604,11.0954 C106.5734,10.8304 106.7254,10.1864 106.7254,9.7324 C106.7254,8.2164 105.4744,7.0804 103.9954,7.0804 C102.5174,7.0804 101.6834,8.0654 101.2284,9.2774 L96.9824,21.0594 L92.5854,9.2394 C92.0924,7.8754 91.2584,7.0804 89.8174,7.0804 C88.2254,7.0804 86.9744,8.2164 86.9744,9.8454 C86.9744,10.2244 87.1264,10.7924 87.2784,11.1714 L94.2154,27.2344 L94.0254,27.6894 C93.4954,28.7124 93.0024,28.9014 91.9784,28.9014 C91.5614,28.9014 91.2584,28.8254 90.7654,28.6744 C90.5384,28.5984 90.2724,28.5224 89.8174,28.5224 C88.6424,28.5224 87.5434,29.4694 87.5434,30.8714 C87.5434,32.2734 88.5294,32.9554 89.3634,33.2584 C90.3104,33.5994 91.2204,33.7884 92.5094,33.7884 L92.5094,33.7884 Z M72.4604,24.9294 C72.4604,26.5174 73.7524,27.8034 75.3474,27.8034 C76.9424,27.8034 78.2334,26.5174 78.2334,24.9294 L78.2334,19.5594 C78.2334,15.4754 79.8664,13.2444 82.7904,12.5634 C83.9674,12.2984 84.9544,11.3914 84.9544,9.8784 C84.9544,8.2524 83.9294,7.0804 82.1444,7.0804 C80.4354,7.0804 79.0684,8.8954 78.2334,10.8614 L78.2334,9.9544 C78.2334,8.3654 76.9424,7.0804 75.3474,7.0804 C73.7524,7.0804 72.4604,8.3654 72.4604,9.9544 L72.4604,24.9294 Z M57.3114,23.0904 C60.6124,23.0904 62.5854,20.5504 62.5854,17.5554 L62.5854,17.4794 C62.5854,14.4844 60.4234,11.8684 57.2354,11.8684 C53.9354,11.8684 51.9624,14.4084 51.9624,17.4034 L51.9624,17.4794 C51.9624,20.4744 54.1244,23.0904 57.3114,23.0904 L57.3114,23.0904 Z M57.2354,28.1024 C50.9404,28.1024 46.2764,23.4354 46.2764,17.5924 L46.2764,17.5164 C46.2764,11.6734 50.9784,6.9304 57.3114,6.9304 C63.6064,6.9304 68.2714,11.5974 68.2714,17.4404 L68.2714,17.5164 C68.2714,23.3594 63.5694,28.1024 57.2354,28.1024 L57.2354,28.1024 Z M35.8394,28.1024 C39.1774,28.1024 41.3404,27.0404 43.0474,25.4844 C43.5404,25.0294 43.8824,24.4224 43.8824,23.6634 C43.8824,22.2974 42.8204,21.1974 41.4544,21.1974 C40.7714,21.1974 40.2024,21.5004 39.8984,21.7284 C38.7984,22.6004 37.6224,23.1324 36.1044,23.1324 C32.9554,23.1324 30.9444,20.6274 30.9444,17.5164 L30.9444,17.4404 C30.9444,14.4434 32.9934,11.9014 35.8774,11.9014 C37.3944,11.9014 38.4564,12.3944 39.4814,13.1914 C39.8224,13.4564 40.3914,13.7604 41.1504,13.7604 C42.5924,13.7604 43.7684,12.6214 43.7684,11.1804 C43.7684,10.1934 43.2374,9.5104 42.8574,9.2074 C41.1504,7.7654 38.9884,6.9304 35.9144,6.9304 C29.6924,6.9304 25.2534,11.7114 25.2534,17.5164 L25.2534,17.5924 C25.2534,23.3974 29.7304,28.1024 35.8394,28.1024 L35.8394,28.1024 Z M12.0014,28.0274 C17.7214,28.0274 21.7374,25.0694 21.7374,19.7974 L21.7374,19.7224 C21.7374,15.0954 18.7064,13.1604 13.3274,11.7574 C8.7434,10.5814 7.6074,10.0124 7.6074,8.2684 L7.6074,8.1924 C7.6074,6.9034 8.7814,5.8794 11.0164,5.8794 C12.8354,5.8794 14.6534,6.5234 16.5854,7.6614 C17.0404,7.9274 17.4944,8.0784 18.0624,8.0784 C19.5784,8.0784 20.7904,6.9034 20.7904,5.3854 C20.7904,4.2484 20.1464,3.4514 19.5024,3.0724 C17.1154,1.5554 14.3124,0.7214 11.0924,0.7214 C5.6754,0.7214 1.8104,3.9064 1.8104,8.7234 L1.8104,8.7994 C1.8104,14.0714 5.2584,15.5504 10.5994,16.9154 C15.0324,18.0534 15.9414,18.8114 15.9414,20.2904 L15.9414,20.3664 C15.9414,21.9214 14.5014,22.8694 12.1154,22.8694 C9.5394,22.8694 7.3414,21.9594 5.3344,20.4804 C4.9554,20.2154 4.4244,19.9494 3.6674,19.9494 C2.1514,19.9494 0.9394,21.1254 0.9394,22.6424 C0.9394,23.5524 1.3944,24.3864 2.0384,24.8424 C4.9934,26.9654 8.5164,28.0274 12.0014,28.0274 L12.0014,28.0274 Z" id="Fill-1" fill="#F8F8F8" mask="url(#mask-2)"></path>
                </g>
                <g id="Group-6" transform="translate(0.000000, 0.509900)">
                    <mask id="mask-4" fill="white">
                        <use xlink:href="#path-3"></use>
                    </mask>
                    <g id="Clip-5"></g>
                    <path d="M29.0955,60 C28.6375,59.992 28.1895,59.862 27.7985,59.624 L24.2785,57.599 C23.1055,58.639 21.3395,58.639 20.1665,57.599 L16.6435,59.624 C16.2515,59.861 15.8035,59.988 15.3455,59.995 C14.1105,59.995 13.2145,59.007 13.2145,57.645 L13.2145,52.915 C13.2145,51.889 13.7275,51.072 14.5075,50.735 L5.2905,45.004 C4.0325,44.223 2.8615,43 1.9225,41.506 L1.3835,40.576 C1.3605,40.533 1.2975,40.406 1.2975,40.406 C1.2445,40.302 1.1915,40.197 1.1415,40.09 C1.0915,39.984 1.0445,39.88 0.9965,39.773 C0.9495,39.667 0.9025,39.558 0.8585,39.45 C0.8145,39.343 0.7725,39.235 0.7305,39.125 C0.6805,38.995 0.6445,38.899 0.6105,38.803 C0.5775,38.706 0.5405,38.592 0.5065,38.486 C0.4545,38.322 0.4275,38.234 0.4015,38.152 C0.3755,38.07 0.3455,37.942 0.3185,37.836 C0.2705,37.648 0.2515,37.57 0.2335,37.492 C0.2095,37.382 0.1885,37.271 0.1685,37.161 C0.1305,36.965 0.1185,36.897 0.1075,36.83 C0.0855,36.685 0.0705,36.545 0.0555,36.406 C0.0395,36.281 0.0335,36.221 0.0285,36.161 C0.0105,35.93 -0.0005,35.707 -0.0005,35.495 L-0.0005,20.508 C-0.0005,20.293 0.0085,20.068 0.0285,19.838 C0.0285,19.777 0.0415,19.71 0.0485,19.652 C0.0735,19.43 0.0875,19.302 0.1065,19.174 C0.1185,19.097 0.1325,19.022 0.1475,18.948 C0.1925,18.704 0.2105,18.606 0.2335,18.506 C0.2565,18.406 0.2745,18.335 0.2965,18.249 C0.3555,18.017 0.3785,17.927 0.4045,17.839 C0.4295,17.75 0.4595,17.657 0.4885,17.566 C0.5615,17.341 0.5865,17.262 0.6145,17.183 C0.6505,17.081 0.6905,16.978 0.7305,16.876 C0.8015,16.688 0.8305,16.613 0.8625,16.537 C0.9105,16.418 0.9635,16.302 1.0145,16.186 C1.0765,16.051 1.1095,15.974 1.1455,15.898 C1.2035,15.778 1.2635,15.658 1.3255,15.539 C1.3255,15.539 1.3885,15.411 1.4115,15.366 L1.7965,14.647 C2.7815,13.081 3.9925,11.799 5.2915,10.991 L9.8695,8.147 L8.7635,7.041 C6.8925,7.041 5.4245,5.575 5.4245,3.766 C5.4245,1.957 6.8925,0.49 8.7015,0.49 C10.5115,0.49 11.9785,1.957 11.9785,3.766 C11.9785,3.849 11.9785,3.931 11.9695,4.013 L13.7175,5.759 L16.8535,3.811 C18.3025,2.913 20.2085,2.415 22.2215,2.415 C24.2815,2.415 26.1865,2.91 27.6365,3.811 L30.8055,5.779 L32.5675,4.014 C32.5675,3.932 32.5585,3.85 32.5585,3.767 C32.5585,2.442 33.3565,1.247 34.5815,0.74 C35.8065,0.232 37.2155,0.513 38.1535,1.45 C39.0905,2.387 39.3705,3.797 38.8625,5.021 C38.3545,6.245 37.1585,7.042 35.8335,7.041 L34.6505,8.166 L39.9385,11.548 C41.0055,12.417 41.9125,13.466 42.6165,14.648 L43.0295,15.363 C43.0545,15.408 43.1185,15.54 43.1185,15.54 C43.1785,15.658 43.2395,15.778 43.2965,15.897 C43.3355,15.978 43.3715,16.057 43.4075,16.138 C43.4775,16.296 43.5315,16.416 43.5815,16.538 C43.6125,16.613 43.6415,16.69 43.6715,16.768 C43.7485,16.968 43.7905,17.076 43.8295,17.185 C43.8575,17.267 43.8845,17.347 43.9105,17.43 C43.9785,17.642 44.0115,17.744 44.0395,17.844 C44.0675,17.944 44.0885,18.022 44.1115,18.114 C44.1665,18.331 44.1895,18.418 44.2095,18.507 C44.2285,18.595 44.2505,18.706 44.2685,18.806 C44.3095,19.025 44.3245,19.101 44.3365,19.175 C44.3555,19.303 44.3695,19.432 44.3825,19.551 C44.4025,19.719 44.4105,19.786 44.4155,19.842 C44.4345,20.073 44.4435,20.299 44.4435,20.511 L44.4435,35.491 C44.4435,35.703 44.4345,35.926 44.4155,36.157 C44.4155,36.216 44.4045,36.276 44.3965,36.338 C44.3785,36.554 44.3645,36.689 44.3425,36.825 C44.3325,36.894 44.3185,36.965 44.3055,37.035 C44.2625,37.262 44.2425,37.375 44.2165,37.489 C44.1985,37.568 44.1795,37.646 44.1595,37.724 C44.1015,37.954 44.0755,38.054 44.0465,38.155 C44.0165,38.256 43.9935,38.331 43.9655,38.418 C43.9075,38.596 43.8745,38.704 43.8355,38.812 C43.7975,38.919 43.7695,38.996 43.7335,39.089 C43.6755,39.239 43.6335,39.349 43.5895,39.459 C43.5455,39.57 43.4995,39.671 43.4525,39.779 C43.4045,39.886 43.3575,39.99 43.3075,40.095 C43.2575,40.201 43.2045,40.306 43.1515,40.411 C43.1095,40.497 43.0885,40.54 43.0655,40.581 L42.5695,41.524 C41.5865,43.007 40.4135,44.228 39.1565,45.009 L29.9385,50.736 C30.7215,51.074 31.2315,51.891 31.2315,52.917 L31.2315,57.652 C31.2265,59.012 30.3295,60 29.0955,60" id="Fill-4" fill="#FFFFFF" mask="url(#mask-4)"></path>
                </g>
                <path d="M22.1912,56.5598 C19.9112,56.5598 18.0622,54.7118 18.0622,52.4328 L18.0622,46.4048 C18.0622,44.1248 19.9112,42.2768 22.1922,42.2768 C24.4722,42.2768 26.3212,44.1248 26.3212,46.4048 L26.3212,52.4328 C26.3212,53.5278 25.8862,54.5778 25.1112,55.3518 C24.3372,56.1258 23.2862,56.5598 22.1912,56.5598" id="Fill-7" fill="#E9EDEE"></path>
                <path d="M22.2207,54.0563 C23.1807,54.0563 23.9597,54.8343 23.9597,55.7943 C23.9597,56.7543 23.1807,57.5323 22.2207,57.5323 C21.2607,57.5323 20.4817,56.7543 20.4817,55.7943 C20.4817,54.8343 21.2607,54.0563 22.2207,54.0563" id="Fill-9" fill="#9B86F9"></path>
                <path d="M1.3562,21.0175 C1.3562,18.0075 3.4492,14.2435 6.0072,12.6545 L17.5712,5.4725 C20.1292,3.8835 24.3142,3.8835 26.8722,5.4725 L38.4352,12.6545 C40.9922,14.2435 43.0892,18.0075 43.0892,21.0175 L43.0892,36.0015 C43.0892,39.0115 40.9962,42.7755 38.4382,44.3645 L26.8742,51.5465 C24.3162,53.1355 20.1302,53.1355 17.5732,51.5465 L6.0072,44.3595 C3.4492,42.7705 1.3562,39.0065 1.3562,35.9955 L1.3562,21.0175 Z" id="Fill-11" fill="#F8F8F8"></path>
                <path d="M15.2496,30.3683 C16.2096,30.3683 16.9886,31.1463 16.9886,32.1063 C16.9886,33.0663 16.2096,33.8443 15.2496,33.8443 C14.2896,33.8443 13.5106,33.0663 13.5106,32.1063 C13.5106,31.1463 14.2896,30.3683 15.2496,30.3683" id="Fill-13" fill="#393939"></path>
                <path d="M29.3136,30.3683 C30.2736,30.3683 31.0526,31.1463 31.0526,32.1063 C31.0526,33.0663 30.2736,33.8443 29.3136,33.8443 C28.3536,33.8443 27.5746,33.0663 27.5746,32.1063 C27.5746,31.1463 28.3536,30.3683 29.3136,30.3683" id="Fill-15" fill="#393939"></path>
                <path d="M8.5044,28.483 C8.5044,22.495 5.9584,17.523 2.6084,16.515 C1.8384,17.975 1.3564,19.582 1.3564,21.019 L1.3564,36.001 C1.3564,37.422 1.8224,39.01 2.5834,40.458 C5.9464,39.468 8.5044,34.484 8.5044,28.483" id="Fill-17" fill="#9B86F9"></path>
                <path d="M35.937,28.483 C35.937,22.495 38.483,17.523 41.833,16.515 C42.603,17.975 43.085,19.582 43.085,21.019 L43.085,36.001 C43.085,37.422 42.619,39.01 41.858,40.458 C38.496,39.468 35.937,34.484 35.937,28.483" id="Fill-19" fill="#9B86F9"></path>
                <path d="M26.818,18.6333 L37.436,12.0053 L26.914,5.4643 C24.356,3.8753 20.17,3.8753 17.613,5.4643 L6.99,12.0403 L17.528,18.6293 C20.083,20.2273 24.263,20.2273 26.818,18.6333" id="Fill-21" fill="#9B86F9"></path>
                <path d="M29.134,38.5687 C29.134,42.1787 26.026,45.1097 22.192,45.1097 C18.359,45.1097 15.246,42.1787 15.246,38.5687" id="Fill-23" fill="#9B86F9"></path>
                <path d="M20.0676,54.99 C20.8376,55.432 20.8376,56.155 20.0676,56.597 L15.9616,58.965 C15.1916,59.407 14.5696,59.045 14.5696,58.162 L14.5696,53.425 C14.5696,52.542 15.1956,52.18 15.9616,52.622 L20.0676,54.99 Z" id="Fill-25" fill="#9B86F9"></path>
                <path d="M24.3737,54.99 C23.6037,55.432 23.6037,56.155 24.3737,56.597 L28.4797,58.965 C29.2497,59.407 29.8717,59.045 29.8717,58.162 L29.8717,53.425 C29.8717,52.542 29.2457,52.18 28.4797,52.622 L24.3737,54.99 Z" id="Fill-27" fill="#9B86F9"></path>
                <path d="M16.3877,12.9018 C16.1627,12.9018 15.9467,12.8128 15.7877,12.6528 L8.5877,5.4568 C8.3737,5.2428 8.2897,4.9308 8.3677,4.6378 C8.4467,4.3448 8.6757,4.1168 8.9677,4.0378 C9.2607,3.9598 9.5727,4.0438 9.7877,4.2578 L16.9867,11.4538 C17.2297,11.6968 17.3027,12.0618 17.1717,12.3788 C17.0397,12.6958 16.7297,12.9028 16.3867,12.9018 L16.3877,12.9018 Z" id="Fill-29" fill="#F8F8F8"></path>
                <path d="M8.7084,2.3582 C9.7684,2.3582 10.6284,3.2172 10.6284,4.2772 C10.6284,5.3362 9.7684,6.1952 8.7084,6.1952 C7.6484,6.1952 6.7884,5.3362 6.7884,4.2772 C6.7884,3.2172 7.6484,2.3582 8.7084,2.3582" id="Fill-31" fill="#9B86F9"></path>
                <path d="M28.1537,12.9018 C27.8097,12.9028 27.5007,12.6958 27.3687,12.3788 C27.2367,12.0618 27.3097,11.6968 27.5537,11.4538 L34.7487,4.2578 C34.9627,4.0438 35.2757,3.9598 35.5687,4.0378 C35.8607,4.1168 36.0897,4.3448 36.1677,4.6378 C36.2467,4.9308 36.1627,5.2428 35.9487,5.4568 L28.7537,12.6528 C28.5947,12.8128 28.3787,12.9018 28.1537,12.9018" id="Fill-33" fill="#F8F8F8"></path>
                <path d="M35.8331,2.3582 C36.8931,2.3582 37.7531,3.2172 37.7531,4.2772 C37.7531,5.3362 36.8931,6.1952 35.8331,6.1952 C34.7731,6.1952 33.9131,5.3362 33.9131,4.2772 C33.9131,3.2172 34.7731,2.3582 35.8331,2.3582" id="Fill-35" fill="#9B86F9"></path>
            </g>
        </g>
    </g>
</svg>