<?xml version="1.0" encoding="UTF-8"?>
<svg width="440px" height="13px" viewBox="0 0 440 13" version="1.1" xmlns="http://www.w3.org/2000/svg" xmlns:xlink="http://www.w3.org/1999/xlink">
    <!-- Generator: Sketch 46.2 (44496) - http://www.bohemiancoding.com/sketch -->
    <title>Group 4</title>
    <desc>Created with Sketch.</desc>
    <defs></defs>
    <g id="Page-1" stroke="none" stroke-width="1" fill="none" fill-rule="evenodd">
        <g id="Login" transform="translate(-794.000000, -535.000000)">
            <g id="Group-11" transform="translate(735.000000, 177.000000)">
                <g id="Group-4" transform="translate(59.000000, 358.000000)">
                    <path d="M223.802279,0.849791377 C224.795581,1.41632179 225.576851,2.19378273 226.146113,3.1821975 C226.715374,4.17061227 227,5.26749513 227,6.472879 C227,7.67826287 226.715374,8.77815914 226.146113,9.77260083 C225.576851,10.7670425 224.795581,11.5535437 223.802279,12.132128 C222.808976,12.7107122 221.708228,13 220.5,13 C219.291772,13 218.191024,12.7107122 217.197721,12.132128 C216.204419,11.5535437 215.423149,10.7670425 214.853887,9.77260083 C214.284626,8.77815914 214,7.67826287 214,6.472879 C214,5.26749513 214.284626,4.17061227 214.853887,3.1821975 C215.423149,2.19378273 216.204419,1.41632179 217.197721,0.849791377 C218.191024,0.28326096 219.291772,0 220.5,0 C221.708228,0 222.808976,0.28326096 223.802279,0.849791377 Z M218.461126,2.73922114 C217.822159,3.11891706 217.316803,3.63722435 216.94504,4.29415855 C216.573278,4.95109276 216.387399,5.67732565 216.387399,6.472879 C216.387399,7.26843235 216.576182,7.99767865 216.953753,8.66063978 C217.331324,9.3236009 217.836681,9.84793502 218.469839,10.2336579 C219.102997,10.6193807 219.791328,10.8122392 220.534853,10.8122392 C221.26676,10.8122392 221.946378,10.6193807 222.573727,10.2336579 C223.201076,9.84793502 223.697719,9.3236009 224.063673,8.66063978 C224.429626,7.99767865 224.612601,7.26843235 224.612601,6.472879 C224.612601,5.67732565 224.429626,4.95109276 224.063673,4.29415855 C223.697719,3.63722435 223.201076,3.11891706 222.573727,2.73922114 C221.946378,2.35952522 221.26676,2.16968011 220.534853,2.16968011 C219.791328,2.16968011 219.100093,2.35952522 218.461126,2.73922114 Z" id="O" fill="#A7A7AE"></path>
                    <path d="M0.5,6.5 L204.5,6.5" id="Line" stroke="#D9D9E0" stroke-linecap="square"></path>
                    <path d="M235.5,6.5 L439.5,6.5" id="Line-Copy" stroke="#D9D9E0" stroke-linecap="square"></path>
                </g>
            </g>
        </g>
    </g>
</svg>